rdefra: Interact with the UK AIR Pollution Database from DEFRA • rOpenSci: rdefra
…
The package logic assumes that users access the UK-AIR database in two steps:

Browse the catalogue of available stations and selects some stations of interest.

Retrieves data for the selected stations.

Get stations catalogue

The list of monitoring stations can be downloaded using the function ukair_catalogue() with no input parameters, as in the example below.

# Get full catalogue
stations <- ukair_catalogue()
stations
#> # A tibble: 6,611 x 16
#>    UK.AIR.ID EU.Site.ID EMEP.Site.ID Site.Name         Environment.Type Zone    
#>    <chr>     <chr>      <chr>        <chr>             <chr>            <chr>   
#>  1 UKA15910  <NA>       <NA>         SH15, SH20, SH25… <NA>             South E…
#>  2 UKA15956  <NA>       <NA>         SH15, SH22, SH25… <NA>             South E…
#>  3 UKA16663  <NA>       <NA>         SH15, SH22, SH25… <NA>             South E…
#>  4 UKA16097  <NA>       <NA>         10 High Street T… <NA>             South E…
#>  5 UKA12536  <NA>       <NA>         ABBOTS LANGLEY 1  <NA>             Greater…
#>  6 UKA12949  <NA>       <NA>         ABERBARGOED 1     <NA>             South W…
#>  7 UKA12399  <NA>       <NA>         ABERCARN 1        <NA>             South W…
#>  8 UKA13340  <NA>       <NA>         ABERDARE 1N       <NA>             South W…
#>  9 UKA13341  <NA>       <NA>         ABERDARE 2N       <NA>             South W…
#> 10 UKA15369  <NA>       <NA>         ABERDARE 3N       <NA>             South W…
#> # … with 6,601 more rows, and 10 more variables: Start.Date <dttm>,
#> #   End.Date <dttm>, Latitude <dbl>, Longitude <dbl>, Northing <dbl>,
#> #   Easting <dbl>, Altitude..m. <dbl>, Networks <chr>,
#> #   AURN.Pollutants.Measured <chr>, Site.Description <chr>
…
site_name IDs of specific site (UK.AIR.ID). By default this is left blank to get info on all the available sites.

pollutant This is an integer between 1 and 10. Default is 9999, which means all the pollutants.

group_id This is the identification number of a group of stations. Default is 9999 which means all available networks.

closed This is set to TRUE to include closed stations, FALSE otherwise.

country_id This is the identification number of the country, it can be an integer between 1 and 6. Default is 9999, which means all the countries.

region_id This is the identification number of the region. 1 = Aberdeen City, etc. (for the full list see https://uk-air.defra.gov.uk/). Default is 9999, which means all the local authorities.

stations_EnglandOzone <- ukair_catalogue(pollutant = 1, country_id = 1)
stations_EnglandOzone
#> # A tibble: 108 x 16
#>    UK.AIR.ID EU.Site.ID EMEP.Site.ID Site.Name       Environment.Type Zone      
#>    <chr>     <chr>      <chr>        <chr>           <chr>            <chr>     
#>  1 UKA00353  GB0681A    <NA>         Barnsley Gawber Urban Background Yorkshire…
#>  2 UKA00626  GB1067A    <NA>         Birmingham A45… Urban Traffic    West Midl…
#>  3 UKA00559  GB1013A    <NA>         Birmingham Aco… Urban Background West Midl…
#>  4 UKA00214  GB0569A    <NA>         Birmingham Cen… Urban Background West Midl…
#>  5 UKA00229  GB0595A    <NA>         Birmingham East Urban Background West Midl…
#>  6 UKA00655  GB1097A    <NA>         Birmingham Lad… Urban Background West Midl…
#>  7 UKA00479  GB0851A    <NA>         Birmingham Tyb… Urban Background West Midl…
#>  8 UKA00543  GB0960A    <NA>         Birmingham Tyb… Urban Traffic    West Midl…
#>  9 UKA00412  GB0727A    <NA>         Blackpool       Urban Background Blackpool…
#> 10 UKA00488  GB0882A    <NA>         Blackpool Mart… Urban Background Blackpool…
#> # … with 98 more rows, and 10 more variables: Start.Date <dttm>,
#> #   End.Date <dttm>, Latitude <dbl>, Longitude <dbl>, Northing <dbl>,
#> #   Easting <dbl>, Altitude..m. <dbl>, Networks <chr>,
#> #   AURN.Pollutants.Measured <chr>, Site.Description <chr>
…
